{
  "project_info": {
    "project_number": "979314910267",
    "project_id": "firebase-androiduda"
  },
  "client": [
    {
      "client_info": {
        "mobilesdk_app_id": "1:979314910267:android:46e02fd40da7bedc",
        "android_client_info": {
          "package_name": "com.mastercard.usdemo"
        }
      },
      "oauth_client": [
        {
          "client_id": "979314910267-k0nr8l1m40093opclc2e4mahj3dhai9j.apps.googleusercontent.com",
          "client_type": 3
        }
      ],
      "api_key": [
        {
          "current_key": "AIzaSyC_-ntn_hsbAYjrjJQtOUCX_sJmLnSpLuY"
        }
      ],
      "services": {
        "analytics_service": {
          "status": 2,
          "analytics_property": {
            "tracking_id": "UA-89236832-18"
          }
        },
        "appinvite_service": {
          "status": 1,
          "other_platform_oauth_client": []
        },
        "ads_service": {
          "status": 1
        }
      }
    }
  ],
  "configuration_version": "1"
}